module gitlab.com/gitlab-org/gitaly/tools/vulncheck

go 1.21

require golang.org/x/vuln v1.1.3

require (
	golang.org/x/mod v0.19.0 // indirect
	golang.org/x/sync v0.7.0 // indirect
	golang.org/x/sys v0.22.0 // indirect
	golang.org/x/telemetry v0.0.0-20240522233618-39ace7a40ae7 // indirect
	golang.org/x/tools v0.23.0 // indirect
)
