module gitlab.com/gitlab-org/gitaly/tools/dlv

go 1.21

require github.com/go-delve/delve v1.23.0

require (
	github.com/cilium/ebpf v0.11.0 // indirect
	github.com/cosiner/argv v0.1.0 // indirect
	github.com/cpuguy83/go-md2man/v2 v2.0.2 // indirect
	github.com/derekparker/trie v0.0.0-20230829180723-39f4de51ef7d // indirect
	github.com/go-delve/liner v1.2.3-0.20231231155935-4726ab1d7f62 // indirect
	github.com/google/go-dap v0.12.0 // indirect
	github.com/hashicorp/golang-lru v1.0.2 // indirect
	github.com/inconshreveable/mousetrap v1.1.0 // indirect
	github.com/mattn/go-colorable v0.1.13 // indirect
	github.com/mattn/go-isatty v0.0.20 // indirect
	github.com/mattn/go-runewidth v0.0.13 // indirect
	github.com/rivo/uniseg v0.2.0 // indirect
	github.com/russross/blackfriday/v2 v2.1.0 // indirect
	github.com/sirupsen/logrus v1.9.3 // indirect
	github.com/spf13/cobra v1.7.0 // indirect
	github.com/spf13/pflag v1.0.5 // indirect
	go.starlark.net v0.0.0-20231101134539-556fd59b42f6 // indirect
	golang.org/x/arch v0.6.0 // indirect
	golang.org/x/exp v0.0.0-20230224173230-c95f2b4c22f2 // indirect
	golang.org/x/sys v0.17.0 // indirect
	gopkg.in/yaml.v3 v3.0.1 // indirect
)
